{
  "tracks" : [ {
    "album" : {
      "album_type" : "ALBUM",
      "external_urls" : {
        "spotify" : "https://open.spotify.com/album/6MAEuDumUgxsWaEWA6lddg"
      },
      "href" : "https://api.spotify.com/v1/albums/6MAEuDumUgxsWaEWA6lddg",
      "id" : "6MAEuDumUgxsWaEWA6lddg",
      "images" : [ {
        "height" : 640,
        "url" : "https://i.scdn.co/image/b6a8d908ba83329a05524dd728293c75af3c7fc1",
        "width" : 640
      }, {
        "height" : 300,
        "url" : "https://i.scdn.co/image/f1da93072ba6838fcce0f5ed28694345ba50813d",
        "width" : 300
      }, {
        "height" : 64,
        "url" : "https://i.scdn.co/image/b3e47b5156b1ca6a86230c643f13aa4b62bb9aab",
        "width" : 64
      } ],
      "name" : "Ghost",
      "type" : "album",
      "uri" : "spotify:album:6MAEuDumUgxsWaEWA6lddg"
    },
    "artists" : [ {
      "external_urls" : {
        "spotify" : "https://open.spotify.com/artist/7nDsS0l5ZAzMedVRKPP8F1"
      },
      "href" : "https://api.spotify.com/v1/artists/7nDsS0l5ZAzMedVRKPP8F1",
      "id" : "7nDsS0l5ZAzMedVRKPP8F1",
      "name" : "Ella Henderson",
      "type" : "artist",
      "uri" : "spotify:artist:7nDsS0l5ZAzMedVRKPP8F1"
    } ],
    "disc_number" : 1,
    "duration_ms" : 216106,
    "explicit" : false,
    "external_ids" : {
      "isrc" : "GBHMU1400029"
    },
    "external_urls" : {
      "spotify" : "https://open.spotify.com/track/2FiceoWDJ67rrmb5tGBpgE"
    },
    "href" : "https://api.spotify.com/v1/tracks/2FiceoWDJ67rrmb5tGBpgE",
    "id" : "2FiceoWDJ67rrmb5tGBpgE",
    "is_playable" : true,
    "name" : "Ghost",
    "popularity" : 68,
    "preview_url" : "https://p.scdn.co/mp3-preview/2b5e8c5debf3329eb564d52508b81515e4eb66c8",
    "track_number" : 1,
    "type" : "track",
    "uri" : "spotify:track:2FiceoWDJ67rrmb5tGBpgE"
  }, {
    "album" : {
      "album_type" : "ALBUM",
      "external_urls" : {
        "spotify" : "https://open.spotify.com/album/5Z5O36p7BivXzkucc0PAfw"
      },
      "href" : "https://api.spotify.com/v1/albums/5Z5O36p7BivXzkucc0PAfw",
      "id" : "5Z5O36p7BivXzkucc0PAfw",
      "images" : [ {
        "height" : 640,
        "url" : "https://i.scdn.co/image/7e9bae0ae734885351bbf0ea571610c3d6dea9d4",
        "width" : 640
      }, {
        "height" : 300,
        "url" : "https://i.scdn.co/image/6208f8ecb93d6bd436666c42d7aea57832570518",
        "width" : 300
      }, {
        "height" : 64,
        "url" : "https://i.scdn.co/image/1676d7633bdb51d1be5f001095ae8a2763e13cb2",
        "width" : 64
      } ],
      "name" : "Queen Of The Clouds",
      "type" : "album",
      "uri" : "spotify:album:5Z5O36p7BivXzkucc0PAfw"
    },
    "artists" : [ {
      "external_urls" : {
        "spotify" : "https://open.spotify.com/artist/4NHQUGzhtTLFvgF5SZesLK"
      },
      "href" : "https://api.spotify.com/v1/artists/4NHQUGzhtTLFvgF5SZesLK",
      "id" : "4NHQUGzhtTLFvgF5SZesLK",
      "name" : "Tove Lo",
      "type" : "artist",
      "uri" : "spotify:artist:4NHQUGzhtTLFvgF5SZesLK"
    }, {
      "external_urls" : {
        "spotify" : "https://open.spotify.com/artist/4dM6NDYSfLcspt8GLoT5aE"
      },
      "href" : "https://api.spotify.com/v1/artists/4dM6NDYSfLcspt8GLoT5aE",
      "id" : "4dM6NDYSfLcspt8GLoT5aE",
      "name" : "Hippie Sabotage",
      "type" : "artist",
      "uri" : "spotify:artist:4dM6NDYSfLcspt8GLoT5aE"
    } ],
    "disc_number" : 1,
    "duration_ms" : 258386,
    "explicit" : false,
    "external_ids" : {
      "isrc" : "SEUM71400257"
    },
    "external_urls" : {
      "spotify" : "https://open.spotify.com/track/5JCi3pyggvk4B0yd0BK3ow"
    },
    "href" : "https://api.spotify.com/v1/tracks/5JCi3pyggvk4B0yd0BK3ow",
    "id" : "5JCi3pyggvk4B0yd0BK3ow",
    "is_playable" : true,
    "name" : "Stay High - Habits Remix",
    "popularity" : 72,
    "preview_url" : "https://p.scdn.co/mp3-preview/78bca7e9b23de7f48627eba1757ab9607fe758f0",
    "track_number" : 17,
    "type" : "track",
    "uri" : "spotify:track:5JCi3pyggvk4B0yd0BK3ow"
  }, {
    "album" : {
      "album_type" : "ALBUM",
      "external_urls" : {
        "spotify" : "https://open.spotify.com/album/0KJe8iJqOpahl1CprfAThy"
      },
      "href" : "https://api.spotify.com/v1/albums/0KJe8iJqOpahl1CprfAThy",
      "id" : "0KJe8iJqOpahl1CprfAThy",
      "images" : [ {
        "height" : 640,
        "url" : "https://i.scdn.co/image/8a61605c87eeb1285a4182f29a15416707c4c8ad",
        "width" : 640
      }, {
        "height" : 300,
        "url" : "https://i.scdn.co/image/eb16d4f985d2af7b7f45234708dffa82fdd092af",
        "width" : 300
      }, {
        "height" : 64,
        "url" : "https://i.scdn.co/image/7533fe1028e2b3bb550329370c2b15fa28d5ee7f",
        "width" : 64
      } ],
      "name" : "Singles",
      "type" : "album",
      "uri" : "spotify:album:0KJe8iJqOpahl1CprfAThy"
    },
    "artists" : [ {
      "external_urls" : {
        "spotify" : "https://open.spotify.com/artist/04gDigrS5kc9YWfZHwBETP"
      },
      "href" : "https://api.spotify.com/v1/artists/04gDigrS5kc9YWfZHwBETP",
      "id" : "04gDigrS5kc9YWfZHwBETP",
      "name" : "Maroon 5",
      "type" : "artist",
      "uri" : "spotify:artist:04gDigrS5kc9YWfZHwBETP"
    }, {
      "external_urls" : {
        "spotify" : "https://open.spotify.com/artist/137W8MRPWKqSmrBGDBFSop"
      },
      "href" : "https://api.spotify.com/v1/artists/137W8MRPWKqSmrBGDBFSop",
      "id" : "137W8MRPWKqSmrBGDBFSop",
      "name" : "Wiz Khalifa",
      "type" : "artist",
      "uri" : "spotify:artist:137W8MRPWKqSmrBGDBFSop"
    } ],
    "disc_number" : 1,
    "duration_ms" : 232320,
    "explicit" : true,
    "external_ids" : {
      "isrc" : "USUM71203347"
    },
    "external_urls" : {
      "spotify" : "https://open.spotify.com/track/09b9RxBsh3iZGUPl9YxtTN"
    },
    "href" : "https://api.spotify.com/v1/tracks/09b9RxBsh3iZGUPl9YxtTN",
    "id" : "09b9RxBsh3iZGUPl9YxtTN",
    "is_playable" : true,
    "linked_from" : {
      "external_urls" : {
        "spotify" : "https://open.spotify.com/track/1XGmzt0PVuFgQYYnV2It7A"
      },
      "href" : "https://api.spotify.com/v1/tracks/1XGmzt0PVuFgQYYnV2It7A",
      "id" : "1XGmzt0PVuFgQYYnV2It7A",
      "type" : "track",
      "uri" : "spotify:track:1XGmzt0PVuFgQYYnV2It7A"
    },
    "name" : "Payphone",
    "popularity" : 44,
    "preview_url" : "https://p.scdn.co/mp3-preview/272d149e28952c2cf7d8117b3a87ba2263b5e588",
    "track_number" : 2,
    "type" : "track",
    "uri" : "spotify:track:09b9RxBsh3iZGUPl9YxtTN"
  }, {
    "album" : {
      "album_type" : "ALBUM",
      "external_urls" : {
        "spotify" : "https://open.spotify.com/album/0kJbDT8VGMScK8YDzNNvzV"
      },
      "href" : "https://api.spotify.com/v1/albums/0kJbDT8VGMScK8YDzNNvzV",
      "id" : "0kJbDT8VGMScK8YDzNNvzV",
      "images" : [ {
        "height" : 640,
        "url" : "https://i.scdn.co/image/137237d9dae101dabca2aefb9e8d9b9980f4ffd7",
        "width" : 640
      }, {
        "height" : 300,
        "url" : "https://i.scdn.co/image/28001650215838a40c9bfcfe65001f8895c4f0dc",
        "width" : 300
      }, {
        "height" : 64,
        "url" : "https://i.scdn.co/image/e242454a6180c27bdfe7881225e508167308315c",
        "width" : 64
      } ],
      "name" : "In The Lonely Hour (Drowning Shadows Edition)",
      "type" : "album",
      "uri" : "spotify:album:0kJbDT8VGMScK8YDzNNvzV"
    },
    "artists" : [ {
      "external_urls" : {
        "spotify" : "https://open.spotify.com/artist/2wY79sveU1sp5g7SokKOiI"
      },
      "href" : "https://api.spotify.com/v1/artists/2wY79sveU1sp5g7SokKOiI",
      "id" : "2wY79sveU1sp5g7SokKOiI",
      "name" : "Sam Smith",
      "type" : "artist",
      "uri" : "spotify:artist:2wY79sveU1sp5g7SokKOiI"
    } ],
    "disc_number" : 1,
    "duration_ms" : 172723,
    "explicit" : false,
    "external_ids" : {
      "isrc" : "GBUM71308833"
    },
    "external_urls" : {
      "spotify" : "https://open.spotify.com/track/62NVyyEBiRxGae3SeB97nl"
    },
    "href" : "https://api.spotify.com/v1/tracks/62NVyyEBiRxGae3SeB97nl",
    "id" : "62NVyyEBiRxGae3SeB97nl",
    "is_playable" : true,
    "name" : "Stay With Me",
    "popularity" : 78,
    "preview_url" : "https://p.scdn.co/mp3-preview/3ffbc91a962e809a6a744b234f54d92cc3002a5f",
    "track_number" : 3,
    "type" : "track",
    "uri" : "spotify:track:62NVyyEBiRxGae3SeB97nl"
  }, {
    "album" : {
      "album_type" : "ALBUM",
      "external_urls" : {
        "spotify" : "https://open.spotify.com/album/1J1mjhlth8XnU8ttfRKp5r"
      },
      "href" : "https://api.spotify.com/v1/albums/1J1mjhlth8XnU8ttfRKp5r",
      "id" : "1J1mjhlth8XnU8ttfRKp5r",
      "images" : [ {
        "height" : 640,
        "url" : "https://i.scdn.co/image/c78eaf7e44a1ebd6f5b36707c3012221d32ffd0b",
        "width" : 640
      }, {
        "height" : 300,
        "url" : "https://i.scdn.co/image/5979192e7bbca8aebfe90220213dd3fcc5fa6fc4",
        "width" : 300
      }, {
        "height" : 64,
        "url" : "https://i.scdn.co/image/10843164b85033f97efba671127215bad84a6f35",
        "width" : 64
      } ],
      "name" : "Last Year Was Complicated",
      "type" : "album",
      "uri" : "spotify:album:1J1mjhlth8XnU8ttfRKp5r"
    },
    "artists" : [ {
      "external_urls" : {
        "spotify" : "https://open.spotify.com/artist/4Rxn7Im3LGfyRkY2FlHhWi"
      },
      "href" : "https://api.spotify.com/v1/artists/4Rxn7Im3LGfyRkY2FlHhWi",
      "id" : "4Rxn7Im3LGfyRkY2FlHhWi",
      "name" : "Nick Jonas",
      "type" : "artist",
      "uri" : "spotify:artist:4Rxn7Im3LGfyRkY2FlHhWi"
    }, {
      "external_urls" : {
        "spotify" : "https://open.spotify.com/artist/4NHQUGzhtTLFvgF5SZesLK"
      },
      "href" : "https://api.spotify.com/v1/artists/4NHQUGzhtTLFvgF5SZesLK",
      "id" : "4NHQUGzhtTLFvgF5SZesLK",
      "name" : "Tove Lo",
      "type" : "artist",
      "uri" : "spotify:artist:4NHQUGzhtTLFvgF5SZesLK"
    } ],
    "disc_number" : 1,
    "duration_ms" : 234213,
    "explicit" : false,
    "external_ids" : {
      "isrc" : "USUM71602394"
    },
    "external_urls" : {
      "spotify" : "https://open.spotify.com/track/2wJhFcye5iiW2mVBpGednz"
    },
    "href" : "https://api.spotify.com/v1/tracks/2wJhFcye5iiW2mVBpGednz",
    "id" : "2wJhFcye5iiW2mVBpGednz",
    "is_playable" : true,
    "linked_from" : {
      "external_urls" : {
        "spotify" : "https://open.spotify.com/track/4Zpe9VME8DiFjLdqSqPRoZ"
      },
      "href" : "https://api.spotify.com/v1/tracks/4Zpe9VME8DiFjLdqSqPRoZ",
      "id" : "4Zpe9VME8DiFjLdqSqPRoZ",
      "type" : "track",
      "uri" : "spotify:track:4Zpe9VME8DiFjLdqSqPRoZ"
    },
    "name" : "Close",
    "popularity" : 84,
    "preview_url" : "https://p.scdn.co/mp3-preview/3825411ad3f2962fa6b965335cf438e959fc616d",
    "track_number" : 3,
    "type" : "track",
    "uri" : "spotify:track:2wJhFcye5iiW2mVBpGednz"
  }, {
    "album" : {
      "album_type" : "ALBUM",
      "external_urls" : {
        "spotify" : "https://open.spotify.com/album/48zisMeiXniWLzOQghbPqS"
      },
      "href" : "https://api.spotify.com/v1/albums/48zisMeiXniWLzOQghbPqS",
      "id" : "48zisMeiXniWLzOQghbPqS",
      "images" : [ {
        "height" : 640,
        "url" : "https://i.scdn.co/image/0e2747127c12222577e98ccec7ce44773c12c546",
        "width" : 640
      }, {
        "height" : 300,
        "url" : "https://i.scdn.co/image/014586070643b0cc0ea467f1a92746a641705806",
        "width" : 300
      }, {
        "height" : 64,
        "url" : "https://i.scdn.co/image/d18b9af145b71e64061ab48362edbf9ed1cc6ff2",
        "width" : 64
      } ],
      "name" : "Motion",
      "type" : "album",
      "uri" : "spotify:album:48zisMeiXniWLzOQghbPqS"
    },
    "artists" : [ {
      "external_urls" : {
        "spotify" : "https://open.spotify.com/artist/7CajNmpbOovFoOoasH2HaY"
      },
      "href" : "https://api.spotify.com/v1/artists/7CajNmpbOovFoOoasH2HaY",
      "id" : "7CajNmpbOovFoOoasH2HaY",
      "name" : "Calvin Harris",
      "type" : "artist",
      "uri" : "spotify:artist:7CajNmpbOovFoOoasH2HaY"
    }, {
      "external_urls" : {
        "spotify" : "https://open.spotify.com/artist/0X2BH1fck6amBIoJhDVmmJ"
      },
      "href" : "https://api.spotify.com/v1/artists/0X2BH1fck6amBIoJhDVmmJ",
      "id" : "0X2BH1fck6amBIoJhDVmmJ",
      "name" : "Ellie Goulding",
      "type" : "artist",
      "uri" : "spotify:artist:0X2BH1fck6amBIoJhDVmmJ"
    } ],
    "disc_number" : 1,
    "duration_ms" : 227266,
    "explicit" : false,
    "external_ids" : {
      "isrc" : "GBARL1401201"
    },
    "external_urls" : {
      "spotify" : "https://open.spotify.com/track/7MmG8p0F9N3C4AXdK6o6Eb"
    },
    "href" : "https://api.spotify.com/v1/tracks/7MmG8p0F9N3C4AXdK6o6Eb",
    "id" : "7MmG8p0F9N3C4AXdK6o6Eb",
    "is_playable" : true,
    "name" : "Outside",
    "popularity" : 79,
    "preview_url" : "https://p.scdn.co/mp3-preview/4af57d4ff6011df3fe2c9bb2d7c6900bc3376b77",
    "track_number" : 6,
    "type" : "track",
    "uri" : "spotify:track:7MmG8p0F9N3C4AXdK6o6Eb"
  }, {
    "album" : {
      "album_type" : "ALBUM",
      "external_urls" : {
        "spotify" : "https://open.spotify.com/album/2TQZYFed2I2ajTSzwZV7ag"
      },
      "href" : "https://api.spotify.com/v1/albums/2TQZYFed2I2ajTSzwZV7ag",
      "id" : "2TQZYFed2I2ajTSzwZV7ag",
      "images" : [ {
        "height" : 640,
        "url" : "https://i.scdn.co/image/0534b31deead1785e9164c83898dd353490df975",
        "width" : 640
      }, {
        "height" : 300,
        "url" : "https://i.scdn.co/image/d6444f707fa1a06aea5e9fdfee7b2c113952c277",
        "width" : 300
      }, {
        "height" : 64,
        "url" : "https://i.scdn.co/image/a51d6087bb6700f2575b81356a08e08838a4c35a",
        "width" : 64
      } ],
      "name" : "Changes (Original Mix)",
      "type" : "album",
      "uri" : "spotify:album:2TQZYFed2I2ajTSzwZV7ag"
    },
    "artists" : [ {
      "external_urls" : {
        "spotify" : "https://open.spotify.com/artist/6HUm6AHJE0oisACMN6NNJ5"
      },
      "href" : "https://api.spotify.com/v1/artists/6HUm6AHJE0oisACMN6NNJ5",
      "id" : "6HUm6AHJE0oisACMN6NNJ5",
      "name" : "Faul & Wad Ad",
      "type" : "artist",
      "uri" : "spotify:artist:6HUm6AHJE0oisACMN6NNJ5"
    }, {
      "external_urls" : {
        "spotify" : "https://open.spotify.com/artist/6n28c9qs9hNGriNa72b26u"
      },
      "href" : "https://api.spotify.com/v1/artists/6n28c9qs9hNGriNa72b26u",
      "id" : "6n28c9qs9hNGriNa72b26u",
      "name" : "Pnau",
      "type" : "artist",
      "uri" : "spotify:artist:6n28c9qs9hNGriNa72b26u"
    } ],
    "disc_number" : 1,
    "duration_ms" : 345173,
    "explicit" : false,
    "external_ids" : {
      "isrc" : "DEQ321300420"
    },
    "external_urls" : {
      "spotify" : "https://open.spotify.com/track/13qqdlSeF8FcxsRyapDMZ0"
    },
    "href" : "https://api.spotify.com/v1/tracks/13qqdlSeF8FcxsRyapDMZ0",
    "id" : "13qqdlSeF8FcxsRyapDMZ0",
    "is_playable" : true,
    "name" : "Changes - Original Mix",
    "popularity" : 70,
    "preview_url" : "https://p.scdn.co/mp3-preview/916fbcea6728f3c734ed26d8a86d507b8f181751",
    "track_number" : 1,
    "type" : "track",
    "uri" : "spotify:track:13qqdlSeF8FcxsRyapDMZ0"
  }, {
    "album" : {
      "album_type" : "ALBUM",
      "external_urls" : {
        "spotify" : "https://open.spotify.com/album/0sTBPvIDEthQT7ah1p3Y75"
      },
      "href" : "https://api.spotify.com/v1/albums/0sTBPvIDEthQT7ah1p3Y75",
      "id" : "0sTBPvIDEthQT7ah1p3Y75",
      "images" : [ {
        "height" : 640,
        "url" : "https://i.scdn.co/image/f098136b54c7dbe0a673604e72e21f88d34318f7",
        "width" : 640
      }, {
        "height" : 300,
        "url" : "https://i.scdn.co/image/5eab6bd0b649df334492ae9fdc16c0b8f6fba083",
        "width" : 300
      }, {
        "height" : 64,
        "url" : "https://i.scdn.co/image/de0f662717da4d5fb49085c5f1b63a6b58c8c41b",
        "width" : 64
      } ],
      "name" : "Fine Ass Mess",
      "type" : "album",
      "uri" : "spotify:album:0sTBPvIDEthQT7ah1p3Y75"
    },
    "artists" : [ {
      "external_urls" : {
        "spotify" : "https://open.spotify.com/artist/33W1pnW9zScZtYTnAoWnOT"
      },
      "href" : "https://api.spotify.com/v1/artists/33W1pnW9zScZtYTnAoWnOT",
      "id" : "33W1pnW9zScZtYTnAoWnOT",
      "name" : "Mr. Probz",
      "type" : "artist",
      "uri" : "spotify:artist:33W1pnW9zScZtYTnAoWnOT"
    } ],
    "disc_number" : 1,
    "duration_ms" : 210090,
    "explicit" : true,
    "external_ids" : {
      "isrc" : "NLB8R1600001"
    },
    "external_urls" : {
      "spotify" : "https://open.spotify.com/track/6v2WCkpwdq5Y5TyYiNs3cO"
    },
    "href" : "https://api.spotify.com/v1/tracks/6v2WCkpwdq5Y5TyYiNs3cO",
    "id" : "6v2WCkpwdq5Y5TyYiNs3cO",
    "is_playable" : true,
    "name" : "Fine Ass Mess",
    "popularity" : 67,
    "preview_url" : "https://p.scdn.co/mp3-preview/4d139294879a317d8324cd39cc705b212f8d255a",
    "track_number" : 1,
    "type" : "track",
    "uri" : "spotify:track:6v2WCkpwdq5Y5TyYiNs3cO"
  }, {
    "album" : {
      "album_type" : "ALBUM",
      "external_urls" : {
        "spotify" : "https://open.spotify.com/album/5VoeRuTrGhTbKelUfwymwu"
      },
      "href" : "https://api.spotify.com/v1/albums/5VoeRuTrGhTbKelUfwymwu",
      "id" : "5VoeRuTrGhTbKelUfwymwu",
      "images" : [ {
        "height" : 640,
        "url" : "https://i.scdn.co/image/f0dda56803ec3cd8eb89d08b63602bc32799a9ba",
        "width" : 640
      }, {
        "height" : 300,
        "url" : "https://i.scdn.co/image/e09f8354245297c5aa9dc65b0d81ef1d478ffdaf",
        "width" : 300
      }, {
        "height" : 64,
        "url" : "https://i.scdn.co/image/25f106537239611f749d0b8c6408ffd5681952e0",
        "width" : 64
      } ],
      "name" : "Born To Die - The Paradise Edition",
      "type" : "album",
      "uri" : "spotify:album:5VoeRuTrGhTbKelUfwymwu"
    },
    "artists" : [ {
      "external_urls" : {
        "spotify" : "https://open.spotify.com/artist/00FQb4jTyendYWaN8pK0wa"
      },
      "href" : "https://api.spotify.com/v1/artists/00FQb4jTyendYWaN8pK0wa",
      "id" : "00FQb4jTyendYWaN8pK0wa",
      "name" : "Lana Del Rey",
      "type" : "artist",
      "uri" : "spotify:artist:00FQb4jTyendYWaN8pK0wa"
    } ],
    "disc_number" : 1,
    "duration_ms" : 285400,
    "explicit" : false,
    "external_ids" : {
      "isrc" : "GBUM71111120"
    },
    "external_urls" : {
      "spotify" : "https://open.spotify.com/track/4Ouhoi2lAhrLJKFzUqEzwl"
    },
    "href" : "https://api.spotify.com/v1/tracks/4Ouhoi2lAhrLJKFzUqEzwl",
    "id" : "4Ouhoi2lAhrLJKFzUqEzwl",
    "is_playable" : true,
    "name" : "Born To Die",
    "popularity" : 65,
    "preview_url" : "https://p.scdn.co/mp3-preview/b59fc4ef6ed110c5cc93d5b37bda7fae8a8d544b",
    "track_number" : 1,
    "type" : "track",
    "uri" : "spotify:track:4Ouhoi2lAhrLJKFzUqEzwl"
  }, {
    "album" : {
      "album_type" : "ALBUM",
      "external_urls" : {
        "spotify" : "https://open.spotify.com/album/5JpH5T1sCYnUyZD6TM0QaY"
      },
      "href" : "https://api.spotify.com/v1/albums/5JpH5T1sCYnUyZD6TM0QaY",
      "id" : "5JpH5T1sCYnUyZD6TM0QaY",
      "images" : [ {
        "height" : 640,
        "url" : "https://i.scdn.co/image/60f9d89a9b005acf036bef08d3a80eea7bfda942",
        "width" : 640
      }, {
        "height" : 300,
        "url" : "https://i.scdn.co/image/e4cf0994fa4502926ec16282c653f7278e67c206",
        "width" : 300
      }, {
        "height" : 64,
        "url" : "https://i.scdn.co/image/3d088c57b96a8cc86bbeb8bb67066a3f5f8ed401",
        "width" : 64
      } ],
      "name" : "Cry Baby (Deluxe)",
      "type" : "album",
      "uri" : "spotify:album:5JpH5T1sCYnUyZD6TM0QaY"
    },
    "artists" : [ {
      "external_urls" : {
        "spotify" : "https://open.spotify.com/artist/63yrD80RY3RNEM2YDpUpO8"
      },
      "href" : "https://api.spotify.com/v1/artists/63yrD80RY3RNEM2YDpUpO8",
      "id" : "63yrD80RY3RNEM2YDpUpO8",
      "name" : "Melanie Martinez",
      "type" : "artist",
      "uri" : "spotify:artist:63yrD80RY3RNEM2YDpUpO8"
    } ],
    "disc_number" : 1,
    "duration_ms" : 239080,
    "explicit" : true,
    "external_ids" : {
      "isrc" : "USAT21501936"
    },
    "external_urls" : {
      "spotify" : "https://open.spotify.com/track/052vSBPxqdmYRDlkSPiavc"
    },
    "href" : "https://api.spotify.com/v1/tracks/052vSBPxqdmYRDlkSPiavc",
    "id" : "052vSBPxqdmYRDlkSPiavc",
    "is_playable" : true,
    "name" : "Cry Baby",
    "popularity" : 74,
    "preview_url" : "https://p.scdn.co/mp3-preview/eee7d2f5b0209fa3cd9daa940969ecd8013c921a",
    "track_number" : 1,
    "type" : "track",
    "uri" : "spotify:track:052vSBPxqdmYRDlkSPiavc"
  }, {
    "album" : {
      "album_type" : "ALBUM",
      "external_urls" : {
        "spotify" : "https://open.spotify.com/album/5Z5O36p7BivXzkucc0PAfw"
      },
      "href" : "https://api.spotify.com/v1/albums/5Z5O36p7BivXzkucc0PAfw",
      "id" : "5Z5O36p7BivXzkucc0PAfw",
      "images" : [ {
        "height" : 640,
        "url" : "https://i.scdn.co/image/7e9bae0ae734885351bbf0ea571610c3d6dea9d4",
        "width" : 640
      }, {
        "height" : 300,
        "url" : "https://i.scdn.co/image/6208f8ecb93d6bd436666c42d7aea57832570518",
        "width" : 300
      }, {
        "height" : 64,
        "url" : "https://i.scdn.co/image/1676d7633bdb51d1be5f001095ae8a2763e13cb2",
        "width" : 64
      } ],
      "name" : "Queen Of The Clouds",
      "type" : "album",
      "uri" : "spotify:album:5Z5O36p7BivXzkucc0PAfw"
    },
    "artists" : [ {
      "external_urls" : {
        "spotify" : "https://open.spotify.com/artist/4NHQUGzhtTLFvgF5SZesLK"
      },
      "href" : "https://api.spotify.com/v1/artists/4NHQUGzhtTLFvgF5SZesLK",
      "id" : "4NHQUGzhtTLFvgF5SZesLK",
      "name" : "Tove Lo",
      "type" : "artist",
      "uri" : "spotify:artist:4NHQUGzhtTLFvgF5SZesLK"
    } ],
    "disc_number" : 1,
    "duration_ms" : 238426,
    "explicit" : true,
    "external_ids" : {
      "isrc" : "SEUM71401533"
    },
    "external_urls" : {
      "spotify" : "https://open.spotify.com/track/7cgu4JBW3hq1GwTM1ilkKQ"
    },
    "href" : "https://api.spotify.com/v1/tracks/7cgu4JBW3hq1GwTM1ilkKQ",
    "id" : "7cgu4JBW3hq1GwTM1ilkKQ",
    "is_playable" : true,
    "linked_from" : {
      "external_urls" : {
        "spotify" : "https://open.spotify.com/track/10sqe2FD4eb8MovY8Nyaii"
      },
      "href" : "https://api.spotify.com/v1/tracks/10sqe2FD4eb8MovY8Nyaii",
      "id" : "10sqe2FD4eb8MovY8Nyaii",
      "type" : "track",
      "uri" : "spotify:track:10sqe2FD4eb8MovY8Nyaii"
    },
    "name" : "Talking Body",
    "popularity" : 72,
    "preview_url" : "https://p.scdn.co/mp3-preview/c3aa40067a2b8a559ce3a33dad973cb8a8ce2a98",
    "track_number" : 4,
    "type" : "track",
    "uri" : "spotify:track:7cgu4JBW3hq1GwTM1ilkKQ"
  }, {
    "album" : {
      "album_type" : "ALBUM",
      "external_urls" : {
        "spotify" : "https://open.spotify.com/album/11jAMg5CsXfhmwe0A8BIU2"
      },
      "href" : "https://api.spotify.com/v1/albums/11jAMg5CsXfhmwe0A8BIU2",
      "id" : "11jAMg5CsXfhmwe0A8BIU2",
      "images" : [ {
        "height" : 640,
        "url" : "https://i.scdn.co/image/7fd9a06e4421be22520b0d3cca3a8f01e420a7fe",
        "width" : 640
      }, {
        "height" : 300,
        "url" : "https://i.scdn.co/image/ea60986c7e3af6e32db77fbb36a2ccd6f6e96efa",
        "width" : 300
      }, {
        "height" : 64,
        "url" : "https://i.scdn.co/image/ed4d0b0aad942e5dcf1a4d954fa47c44df8bb6c1",
        "width" : 64
      } ],
      "name" : "No Broken Hearts (feat. Nicki Minaj)",
      "type" : "album",
      "uri" : "spotify:album:11jAMg5CsXfhmwe0A8BIU2"
    },
    "artists" : [ {
      "external_urls" : {
        "spotify" : "https://open.spotify.com/artist/64M6ah0SkkRsnPGtGiRAbb"
      },
      "href" : "https://api.spotify.com/v1/artists/64M6ah0SkkRsnPGtGiRAbb",
      "id" : "64M6ah0SkkRsnPGtGiRAbb",
      "name" : "Bebe Rexha",
      "type" : "artist",
      "uri" : "spotify:artist:64M6ah0SkkRsnPGtGiRAbb"
    }, {
      "external_urls" : {
        "spotify" : "https://open.spotify.com/artist/0hCNtLu0JehylgoiP8L4Gh"
      },
      "href" : "https://api.spotify.com/v1/artists/0hCNtLu0JehylgoiP8L4Gh",
      "id" : "0hCNtLu0JehylgoiP8L4Gh",
      "name" : "Nicki Minaj",
      "type" : "artist",
      "uri" : "spotify:artist:0hCNtLu0JehylgoiP8L4Gh"
    } ],
    "disc_number" : 1,
    "duration_ms" : 239991,
    "explicit" : true,
    "external_ids" : {
      "isrc" : "USWB11600207"
    },
    "external_urls" : {
      "spotify" : "https://open.spotify.com/track/4qULqxfCRhJAXVc75UupQB"
    },
    "href" : "https://api.spotify.com/v1/tracks/4qULqxfCRhJAXVc75UupQB",
    "id" : "4qULqxfCRhJAXVc75UupQB",
    "is_playable" : true,
    "name" : "No Broken Hearts (feat. Nicki Minaj)",
    "popularity" : 84,
    "preview_url" : "https://p.scdn.co/mp3-preview/af85c66bfdade8f10a208d5425773059fe74b872",
    "track_number" : 1,
    "type" : "track",
    "uri" : "spotify:track:4qULqxfCRhJAXVc75UupQB"
  }, {
    "album" : {
      "album_type" : "ALBUM",
      "external_urls" : {
        "spotify" : "https://open.spotify.com/album/3EnagjeTqe4GvpF3dgVPtF"
      },
      "href" : "https://api.spotify.com/v1/albums/3EnagjeTqe4GvpF3dgVPtF",
      "id" : "3EnagjeTqe4GvpF3dgVPtF",
      "images" : [ {
        "height" : 636,
        "url" : "https://i.scdn.co/image/367bcda92c49009444cac9a360ae76312b670cf0",
        "width" : 640
      }, {
        "height" : 298,
        "url" : "https://i.scdn.co/image/897ab234129ed4502e37725cdb5d1df8b9f1e1c7",
        "width" : 300
      }, {
        "height" : 64,
        "url" : "https://i.scdn.co/image/c371b2c9f0ebb8d5ff820ce83c6e2ec102d5b312",
        "width" : 64
      } ],
      "name" : "G.R.L.",
      "type" : "album",
      "uri" : "spotify:album:3EnagjeTqe4GvpF3dgVPtF"
    },
    "artists" : [ {
      "external_urls" : {
        "spotify" : "https://open.spotify.com/artist/3Yl4nkmEa8BSuGWbwhdLDq"
      },
      "href" : "https://api.spotify.com/v1/artists/3Yl4nkmEa8BSuGWbwhdLDq",
      "id" : "3Yl4nkmEa8BSuGWbwhdLDq",
      "name" : "G.R.L.",
      "type" : "artist",
      "uri" : "spotify:artist:3Yl4nkmEa8BSuGWbwhdLDq"
    } ],
    "disc_number" : 1,
    "duration_ms" : 198306,
    "explicit" : false,
    "external_ids" : {
      "isrc" : "USRC11400627"
    },
    "external_urls" : {
      "spotify" : "https://open.spotify.com/track/3qqho4PnTn3zlMPBzWhFFD"
    },
    "href" : "https://api.spotify.com/v1/tracks/3qqho4PnTn3zlMPBzWhFFD",
    "id" : "3qqho4PnTn3zlMPBzWhFFD",
    "is_playable" : true,
    "name" : "Ugly Heart",
    "popularity" : 66,
    "preview_url" : "https://p.scdn.co/mp3-preview/92d5bc75f6f30cda85e4f20f439177a86f9862d9",
    "track_number" : 1,
    "type" : "track",
    "uri" : "spotify:track:3qqho4PnTn3zlMPBzWhFFD"
  }, {
    "album" : {
      "album_type" : "ALBUM",
      "external_urls" : {
        "spotify" : "https://open.spotify.com/album/7oRxgNBZeMhA7O1eu8OHas"
      },
      "href" : "https://api.spotify.com/v1/albums/7oRxgNBZeMhA7O1eu8OHas",
      "id" : "7oRxgNBZeMhA7O1eu8OHas",
      "images" : [ {
        "height" : 640,
        "url" : "https://i.scdn.co/image/4b19db489d059b24941a2a1ea71489b7671f13ca",
        "width" : 640
      }, {
        "height" : 300,
        "url" : "https://i.scdn.co/image/6711de0195f509e4fd8ef21f7520026ca782f701",
        "width" : 300
      }, {
        "height" : 64,
        "url" : "https://i.scdn.co/image/5d4657b14698507eb84dc9f32189db900952da63",
        "width" : 64
      } ],
      "name" : "Desire (Gryffin Remix)",
      "type" : "album",
      "uri" : "spotify:album:7oRxgNBZeMhA7O1eu8OHas"
    },
    "artists" : [ {
      "external_urls" : {
        "spotify" : "https://open.spotify.com/artist/5vBSrE1xujD2FXYRarbAXc"
      },
      "href" : "https://api.spotify.com/v1/artists/5vBSrE1xujD2FXYRarbAXc",
      "id" : "5vBSrE1xujD2FXYRarbAXc",
      "name" : "Years & Years",
      "type" : "artist",
      "uri" : "spotify:artist:5vBSrE1xujD2FXYRarbAXc"
    } ],
    "disc_number" : 1,
    "duration_ms" : 268840,
    "explicit" : false,
    "external_ids" : {
      "isrc" : "GBUM71504341"
    },
    "external_urls" : {
      "spotify" : "https://open.spotify.com/track/2xlCyb1ZfFad6np6zx4hhw"
    },
    "href" : "https://api.spotify.com/v1/tracks/2xlCyb1ZfFad6np6zx4hhw",
    "id" : "2xlCyb1ZfFad6np6zx4hhw",
    "is_playable" : true,
    "name" : "Desire - Gryffin Remix",
    "popularity" : 70,
    "preview_url" : "https://p.scdn.co/mp3-preview/0fdb569383e504835321f626d5a528215679288f",
    "track_number" : 1,
    "type" : "track",
    "uri" : "spotify:track:2xlCyb1ZfFad6np6zx4hhw"
  }, {
    "album" : {
      "album_type" : "ALBUM",
      "external_urls" : {
        "spotify" : "https://open.spotify.com/album/6KV9kNSuC1mmzrXKx6p6vV"
      },
      "href" : "https://api.spotify.com/v1/albums/6KV9kNSuC1mmzrXKx6p6vV",
      "id" : "6KV9kNSuC1mmzrXKx6p6vV",
      "images" : [ {
        "height" : 640,
        "url" : "https://i.scdn.co/image/60eb686eb4a4ab405f41824af7c6a241ef7681c8",
        "width" : 640
      }, {
        "height" : 300,
        "url" : "https://i.scdn.co/image/e9abfa8fcfb57ff5c43cd7cbc15ef79abc5c6ac2",
        "width" : 300
      }, {
        "height" : 64,
        "url" : "https://i.scdn.co/image/36f99cc3fe8162c6064c35e3563e2f8f81b00ce3",
        "width" : 64
      } ],
      "name" : "On A Mission",
      "type" : "album",
      "uri" : "spotify:album:6KV9kNSuC1mmzrXKx6p6vV"
    },
    "artists" : [ {
      "external_urls" : {
        "spotify" : "https://open.spotify.com/artist/5EUdiv20t58GCS09VMKk7M"
      },
      "href" : "https://api.spotify.com/v1/artists/5EUdiv20t58GCS09VMKk7M",
      "id" : "5EUdiv20t58GCS09VMKk7M",
      "name" : "Katy B",
      "type" : "artist",
      "uri" : "spotify:artist:5EUdiv20t58GCS09VMKk7M"
    } ],
    "disc_number" : 1,
    "duration_ms" : 219120,
    "explicit" : true,
    "external_ids" : {
      "isrc" : "GBARL1100096"
    },
    "external_urls" : {
      "spotify" : "https://open.spotify.com/track/47uhrF6IvyE2eUyyfLAEzf"
    },
    "href" : "https://api.spotify.com/v1/tracks/47uhrF6IvyE2eUyyfLAEzf",
    "id" : "47uhrF6IvyE2eUyyfLAEzf",
    "is_playable" : true,
    "name" : "Katy on a Mission",
    "popularity" : 54,
    "preview_url" : "https://p.scdn.co/mp3-preview/287c9ff6d7063cbad9c31be8b0fad29672d4d883",
    "track_number" : 2,
    "type" : "track",
    "uri" : "spotify:track:47uhrF6IvyE2eUyyfLAEzf"
  }, {
    "album" : {
      "album_type" : "ALBUM",
      "external_urls" : {
        "spotify" : "https://open.spotify.com/album/5JpH5T1sCYnUyZD6TM0QaY"
      },
      "href" : "https://api.spotify.com/v1/albums/5JpH5T1sCYnUyZD6TM0QaY",
      "id" : "5JpH5T1sCYnUyZD6TM0QaY",
      "images" : [ {
        "height" : 640,
        "url" : "https://i.scdn.co/image/60f9d89a9b005acf036bef08d3a80eea7bfda942",
        "width" : 640
      }, {
        "height" : 300,
        "url" : "https://i.scdn.co/image/e4cf0994fa4502926ec16282c653f7278e67c206",
        "width" : 300
      }, {
        "height" : 64,
        "url" : "https://i.scdn.co/image/3d088c57b96a8cc86bbeb8bb67066a3f5f8ed401",
        "width" : 64
      } ],
      "name" : "Cry Baby (Deluxe)",
      "type" : "album",
      "uri" : "spotify:album:5JpH5T1sCYnUyZD6TM0QaY"
    },
    "artists" : [ {
      "external_urls" : {
        "spotify" : "https://open.spotify.com/artist/63yrD80RY3RNEM2YDpUpO8"
      },
      "href" : "https://api.spotify.com/v1/artists/63yrD80RY3RNEM2YDpUpO8",
      "id" : "63yrD80RY3RNEM2YDpUpO8",
      "name" : "Melanie Martinez",
      "type" : "artist",
      "uri" : "spotify:artist:63yrD80RY3RNEM2YDpUpO8"
    } ],
    "disc_number" : 1,
    "duration_ms" : 253066,
    "explicit" : true,
    "external_ids" : {
      "isrc" : "USAT21501937"
    },
    "external_urls" : {
      "spotify" : "https://open.spotify.com/track/3NDPcoeno6oasqi6Hs75Ax"
    },
    "href" : "https://api.spotify.com/v1/tracks/3NDPcoeno6oasqi6Hs75Ax",
    "id" : "3NDPcoeno6oasqi6Hs75Ax",
    "is_playable" : true,
    "name" : "Alphabet Boy",
    "popularity" : 72,
    "preview_url" : "https://p.scdn.co/mp3-preview/ba588609ee7d931825f8f50448d6d05215106354",
    "track_number" : 5,
    "type" : "track",
    "uri" : "spotify:track:3NDPcoeno6oasqi6Hs75Ax"
  }, {
    "album" : {
      "album_type" : "ALBUM",
      "external_urls" : {
        "spotify" : "https://open.spotify.com/album/48zisMeiXniWLzOQghbPqS"
      },
      "href" : "https://api.spotify.com/v1/albums/48zisMeiXniWLzOQghbPqS",
      "id" : "48zisMeiXniWLzOQghbPqS",
      "images" : [ {
        "height" : 640,
        "url" : "https://i.scdn.co/image/0e2747127c12222577e98ccec7ce44773c12c546",
        "width" : 640
      }, {
        "height" : 300,
        "url" : "https://i.scdn.co/image/014586070643b0cc0ea467f1a92746a641705806",
        "width" : 300
      }, {
        "height" : 64,
        "url" : "https://i.scdn.co/image/d18b9af145b71e64061ab48362edbf9ed1cc6ff2",
        "width" : 64
      } ],
      "name" : "Motion",
      "type" : "album",
      "uri" : "spotify:album:48zisMeiXniWLzOQghbPqS"
    },
    "artists" : [ {
      "external_urls" : {
        "spotify" : "https://open.spotify.com/artist/7CajNmpbOovFoOoasH2HaY"
      },
      "href" : "https://api.spotify.com/v1/artists/7CajNmpbOovFoOoasH2HaY",
      "id" : "7CajNmpbOovFoOoasH2HaY",
      "name" : "Calvin Harris",
      "type" : "artist",
      "uri" : "spotify:artist:7CajNmpbOovFoOoasH2HaY"
    }, {
      "external_urls" : {
        "spotify" : "https://open.spotify.com/artist/4AVFqumd2ogHFlRbKIjp1t"
      },
      "href" : "https://api.spotify.com/v1/artists/4AVFqumd2ogHFlRbKIjp1t",
      "id" : "4AVFqumd2ogHFlRbKIjp1t",
      "name" : "Alesso",
      "type" : "artist",
      "uri" : "spotify:artist:4AVFqumd2ogHFlRbKIjp1t"
    }, {
      "external_urls" : {
        "spotify" : "https://open.spotify.com/artist/3w4VAlllkAWI6m0AV0Gn6a"
      },
      "href" : "https://api.spotify.com/v1/artists/3w4VAlllkAWI6m0AV0Gn6a",
      "id" : "3w4VAlllkAWI6m0AV0Gn6a",
      "name" : "Hurts",
      "type" : "artist",
      "uri" : "spotify:artist:3w4VAlllkAWI6m0AV0Gn6a"
    } ],
    "disc_number" : 1,
    "duration_ms" : 184280,
    "explicit" : false,
    "external_ids" : {
      "isrc" : "GBARL1301271"
    },
    "external_urls" : {
      "spotify" : "https://open.spotify.com/track/4J7CKHCF3mdL4diUsmW8lq"
    },
    "href" : "https://api.spotify.com/v1/tracks/4J7CKHCF3mdL4diUsmW8lq",
    "id" : "4J7CKHCF3mdL4diUsmW8lq",
    "is_playable" : true,
    "name" : "Under Control",
    "popularity" : 75,
    "preview_url" : "https://p.scdn.co/mp3-preview/7a839c5734d94a0fb9d343aa8c88255d9e9605eb",
    "track_number" : 2,
    "type" : "track",
    "uri" : "spotify:track:4J7CKHCF3mdL4diUsmW8lq"
  }, {
    "album" : {
      "album_type" : "ALBUM",
      "external_urls" : {
        "spotify" : "https://open.spotify.com/album/5Z5O36p7BivXzkucc0PAfw"
      },
      "href" : "https://api.spotify.com/v1/albums/5Z5O36p7BivXzkucc0PAfw",
      "id" : "5Z5O36p7BivXzkucc0PAfw",
      "images" : [ {
        "height" : 640,
        "url" : "https://i.scdn.co/image/7e9bae0ae734885351bbf0ea571610c3d6dea9d4",
        "width" : 640
      }, {
        "height" : 300,
        "url" : "https://i.scdn.co/image/6208f8ecb93d6bd436666c42d7aea57832570518",
        "width" : 300
      }, {
        "height" : 64,
        "url" : "https://i.scdn.co/image/1676d7633bdb51d1be5f001095ae8a2763e13cb2",
        "width" : 64
      } ],
      "name" : "Queen Of The Clouds",
      "type" : "album",
      "uri" : "spotify:album:5Z5O36p7BivXzkucc0PAfw"
    },
    "artists" : [ {
      "external_urls" : {
        "spotify" : "https://open.spotify.com/artist/4NHQUGzhtTLFvgF5SZesLK"
      },
      "href" : "https://api.spotify.com/v1/artists/4NHQUGzhtTLFvgF5SZesLK",
      "id" : "4NHQUGzhtTLFvgF5SZesLK",
      "name" : "Tove Lo",
      "type" : "artist",
      "uri" : "spotify:artist:4NHQUGzhtTLFvgF5SZesLK"
    } ],
    "disc_number" : 1,
    "duration_ms" : 216853,
    "explicit" : false,
    "external_ids" : {
      "isrc" : "SEUM71401536"
    },
    "external_urls" : {
      "spotify" : "https://open.spotify.com/track/4GRvHGd3CIKbwEXmPJioXU"
    },
    "href" : "https://api.spotify.com/v1/tracks/4GRvHGd3CIKbwEXmPJioXU",
    "id" : "4GRvHGd3CIKbwEXmPJioXU",
    "is_playable" : true,
    "linked_from" : {
      "external_urls" : {
        "spotify" : "https://open.spotify.com/track/0u9U9MwSjybZi3lZsc0MF8"
      },
      "href" : "https://api.spotify.com/v1/tracks/0u9U9MwSjybZi3lZsc0MF8",
      "id" : "0u9U9MwSjybZi3lZsc0MF8",
      "type" : "track",
      "uri" : "spotify:track:0u9U9MwSjybZi3lZsc0MF8"
    },
    "name" : "My Gun",
    "popularity" : 48,
    "preview_url" : "https://p.scdn.co/mp3-preview/81adeac7792df424f48c455d4888ce1e9d8cacb4",
    "track_number" : 2,
    "type" : "track",
    "uri" : "spotify:track:4GRvHGd3CIKbwEXmPJioXU"
  }, {
    "album" : {
      "album_type" : "ALBUM",
      "external_urls" : {
        "spotify" : "https://open.spotify.com/album/0zAsh6hObeNmFgFPrUiFcP"
      },
      "href" : "https://api.spotify.com/v1/albums/0zAsh6hObeNmFgFPrUiFcP",
      "id" : "0zAsh6hObeNmFgFPrUiFcP",
      "images" : [ {
        "height" : 640,
        "url" : "https://i.scdn.co/image/c3c226ca1b710078b9f2d9b01c9fdd0c7823c80d",
        "width" : 640
      }, {
        "height" : 300,
        "url" : "https://i.scdn.co/image/2910f0b081430686f99287edc1a089fd0e1f93ba",
        "width" : 300
      }, {
        "height" : 64,
        "url" : "https://i.scdn.co/image/e4248cbafeed7c5026a5939cffc8c6ad8c41732b",
        "width" : 64
      } ],
      "name" : "Reflection (Deluxe)",
      "type" : "album",
      "uri" : "spotify:album:0zAsh6hObeNmFgFPrUiFcP"
    },
    "artists" : [ {
      "external_urls" : {
        "spotify" : "https://open.spotify.com/artist/1l8Fu6IkuTP0U5QetQJ5Xt"
      },
      "href" : "https://api.spotify.com/v1/artists/1l8Fu6IkuTP0U5QetQJ5Xt",
      "id" : "1l8Fu6IkuTP0U5QetQJ5Xt",
      "name" : "Fifth Harmony",
      "type" : "artist",
      "uri" : "spotify:artist:1l8Fu6IkuTP0U5QetQJ5Xt"
    } ],
    "disc_number" : 1,
    "duration_ms" : 162626,
    "explicit" : false,
    "external_ids" : {
      "isrc" : "USSM11406648"
    },
    "external_urls" : {
      "spotify" : "https://open.spotify.com/track/53wOz83HJpPO9okzp0IsLa"
    },
    "href" : "https://api.spotify.com/v1/tracks/53wOz83HJpPO9okzp0IsLa",
    "id" : "53wOz83HJpPO9okzp0IsLa",
    "is_playable" : true,
    "name" : "Them Girls Be Like",
    "popularity" : 62,
    "preview_url" : "https://p.scdn.co/mp3-preview/a54751cef8a0b47223fde308dce98c6e7fad0350",
    "track_number" : 8,
    "type" : "track",
    "uri" : "spotify:track:53wOz83HJpPO9okzp0IsLa"
  }, {
    "album" : {
      "album_type" : "ALBUM",
      "external_urls" : {
        "spotify" : "https://open.spotify.com/album/0vXJ3rh6Sy7KWjp2P5d7ll"
      },
      "href" : "https://api.spotify.com/v1/albums/0vXJ3rh6Sy7KWjp2P5d7ll",
      "id" : "0vXJ3rh6Sy7KWjp2P5d7ll",
      "images" : [ {
        "height" : 640,
        "url" : "https://i.scdn.co/image/173a058d3113d74e25e33e43496e3526ca274c2c",
        "width" : 640
      }, {
        "height" : 300,
        "url" : "https://i.scdn.co/image/466054531481c439738a8e2b3ce5cea923f4be00",
        "width" : 300
      }, {
        "height" : 64,
        "url" : "https://i.scdn.co/image/f5bd60ba5e14d9f1340f696e2c3c402026b97485",
        "width" : 64
      } ],
      "name" : "Uncover",
      "type" : "album",
      "uri" : "spotify:album:0vXJ3rh6Sy7KWjp2P5d7ll"
    },
    "artists" : [ {
      "external_urls" : {
        "spotify" : "https://open.spotify.com/artist/1Xylc3o4UrD53lo9CvFvVg"
      },
      "href" : "https://api.spotify.com/v1/artists/1Xylc3o4UrD53lo9CvFvVg",
      "id" : "1Xylc3o4UrD53lo9CvFvVg",
      "name" : "Zara Larsson",
      "type" : "artist",
      "uri" : "spotify:artist:1Xylc3o4UrD53lo9CvFvVg"
    } ],
    "disc_number" : 1,
    "duration_ms" : 213543,
    "explicit" : false,
    "external_ids" : {
      "isrc" : "SEWEE1201112"
    },
    "external_urls" : {
      "spotify" : "https://open.spotify.com/track/3DQisSEr1TLp9H0BEeKiQS"
    },
    "href" : "https://api.spotify.com/v1/tracks/3DQisSEr1TLp9H0BEeKiQS",
    "id" : "3DQisSEr1TLp9H0BEeKiQS",
    "is_playable" : true,
    "name" : "Uncover",
    "popularity" : 72,
    "preview_url" : "https://p.scdn.co/mp3-preview/1ee901eae93c71f55bcdcd7ebdac8c203239d305",
    "track_number" : 3,
    "type" : "track",
    "uri" : "spotify:track:3DQisSEr1TLp9H0BEeKiQS"
  } ],
  "seeds" : [ {
    "initialPoolSize" : 216,
    "afterFilteringSize" : 216,
    "afterRelinkingSize" : 216,
    "id" : "4NHQUGzhtTLFvgF5SZesLK",
    "type" : "ARTIST",
    "href" : "https://api.spotify.com/v1/artists/4NHQUGzhtTLFvgF5SZesLK"
  }, {
    "initialPoolSize" : 62,
    "afterFilteringSize" : 62,
    "afterRelinkingSize" : 61,
    "id" : "0c6xIDDpzE81m2q797ordA",
    "type" : "TRACK",
    "href" : "https://api.spotify.com/v1/tracks/0c6xIDDpzE81m2q797ordA"
  } ]
}